<?xml version="1.0" standalone="no"?>
<!DOCTYPE svg PUBLIC "-//W3C//DTD SVG 20010904//EN"
 "http://www.w3.org/TR/2001/REC-SVG-20010904/DTD/svg10.dtd">
<svg version="1.0" xmlns="http://www.w3.org/2000/svg"
 width="512.000000pt" height="512.000000pt" viewBox="0 0 512.000000 512.000000"
 preserveAspectRatio="xMidYMid meet">
<metadata>
Created by potrace 1.11, written by Peter Selinger 2001-2013
</metadata>
<g transform="translate(0.000000,512.000000) scale(0.100000,-0.100000)"
fill="#000000" stroke="none">
<path d="M2255 5039 c-116 -9 -197 -20 -210 -29 -5 -4 -27 -11 -49 -14 -38 -7
-53 -16 -84 -48 -9 -10 -22 -18 -29 -18 -7 0 -13 -4 -13 -9 0 -5 -9 -12 -19
-16 -20 -6 -62 -41 -146 -121 -23 -23 -50 -44 -59 -47 -10 -4 -14 -11 -11 -17
3 -5 0 -10 -8 -10 -8 0 -67 -53 -131 -117 -149 -151 -146 -149 -146 -156 0 -4
-18 -25 -40 -47 -22 -22 -40 -44 -40 -50 0 -5 -3 -10 -8 -10 -4 0 -18 -18 -32
-40 -14 -22 -28 -40 -32 -40 -5 0 -8 -6 -8 -13 0 -7 -9 -20 -20 -30 -11 -9
-20 -24 -20 -32 0 -8 -4 -15 -10 -15 -5 0 -12 -11 -16 -24 -3 -14 -12 -27 -20
-30 -8 -3 -14 -12 -14 -21 0 -8 -4 -15 -10 -15 -5 0 -10 -6 -10 -14 0 -8 -6
-21 -13 -28 -6 -7 -21 -32 -32 -55 -11 -24 -23 -43 -27 -43 -3 0 -9 -13 -13
-30 -4 -16 -10 -30 -15 -30 -5 0 -11 -13 -15 -30 -4 -16 -10 -30 -15 -30 -4 0
-11 -16 -14 -35 -4 -19 -11 -35 -16 -35 -4 0 -11 -13 -15 -30 -4 -16 -10 -30
-15 -30 -4 0 -11 -12 -15 -27 -3 -15 -10 -30 -13 -33 -11 -8 -60 -112 -67
-143 -4 -15 -11 -27 -16 -27 -4 0 -11 -16 -15 -35 -3 -19 -10 -35 -15 -35 -4
0 -11 -22 -15 -50 -4 -27 -10 -50 -15 -50 -4 0 -11 -20 -15 -45 -3 -25 -10
-45 -14 -45 -4 0 -11 -25 -15 -55 -3 -30 -10 -55 -14 -55 -5 0 -12 -24 -15
-52 -4 -29 -11 -57 -16 -63 -4 -5 -10 -35 -13 -65 -3 -30 -10 -94 -17 -142
-11 -78 -10 -94 6 -145 10 -32 24 -69 31 -83 7 -14 13 -30 13 -36 0 -7 7 -14
15 -18 8 -3 15 -12 15 -21 0 -8 4 -15 9 -15 5 0 13 -10 17 -22 3 -12 62 -76
129 -142 141 -139 184 -176 202 -176 7 0 13 -4 13 -10 0 -5 11 -12 25 -16 14
-3 22 -10 20 -15 -3 -5 6 -11 20 -15 14 -3 25 -10 25 -14 0 -5 10 -12 23 -16
12 -4 24 -9 27 -13 7 -8 37 -26 90 -53 25 -13 46 -26 48 -30 2 -4 19 -10 38
-14 19 -3 34 -10 34 -15 0 -5 18 -12 40 -15 22 -4 40 -10 40 -14 0 -4 20 -11
45 -14 25 -4 45 -11 45 -17 0 -5 15 -9 33 -9 47 0 77 -10 77 -26 0 -8 -4 -14
-10 -14 -5 0 -12 -11 -16 -25 -3 -14 -10 -25 -14 -25 -5 0 -11 -14 -15 -30 -4
-17 -10 -30 -15 -30 -4 0 -11 -11 -14 -25 -4 -14 -10 -25 -15 -25 -5 0 -12
-14 -16 -30 -4 -17 -10 -30 -15 -30 -4 0 -11 -8 -14 -17 -13 -35 -37 -73 -47
-73 -5 0 -9 -7 -9 -15 0 -8 -4 -15 -9 -15 -5 0 -12 -11 -15 -25 -4 -14 -11
-25 -16 -25 -6 0 -10 -6 -10 -13 0 -8 -9 -24 -20 -37 -11 -13 -20 -29 -20 -37
0 -7 -4 -13 -10 -13 -5 0 -10 -6 -10 -14 0 -8 -6 -21 -13 -28 -8 -7 -17 -30
-21 -51 -4 -20 -11 -37 -16 -37 -6 0 -10 -5 -10 -11 0 -6 -7 -26 -15 -45 -8
-19 -22 -49 -30 -68 -8 -19 -15 -43 -15 -54 0 -11 -5 -22 -10 -24 -6 -2 -13
-21 -17 -43 -3 -22 -11 -43 -16 -47 -19 -12 -21 -123 -3 -159 9 -18 16 -38 16
-46 0 -7 6 -16 14 -19 8 -3 17 -16 20 -30 4 -13 11 -24 16 -24 6 0 10 -7 10
-15 0 -8 7 -15 15 -15 8 0 15 -6 15 -14 0 -8 11 -17 25 -20 14 -4 25 -10 25
-15 0 -11 48 -60 80 -81 12 -8 28 -20 34 -26 7 -6 22 -15 34 -18 12 -4 22 -11
22 -16 0 -5 13 -11 30 -15 16 -4 30 -10 30 -15 0 -5 20 -12 45 -16 25 -3 45
-10 45 -15 0 -5 11 -9 24 -9 25 0 36 16 36 56 0 13 4 24 9 24 6 0 13 20 17 45
3 25 10 45 14 45 5 0 11 18 15 40 4 22 11 40 15 40 5 0 11 13 15 30 4 16 11
30 16 30 5 0 9 7 9 15 0 9 6 18 14 21 8 3 17 15 20 27 6 23 73 57 112 57 20 0
21 -6 28 -172 4 -95 11 -175 15 -178 4 -3 11 -38 14 -79 3 -41 10 -77 15 -80
5 -3 13 -21 17 -39 3 -17 11 -32 16 -32 5 0 9 -7 9 -15 0 -8 11 -26 25 -40 29
-28 82 -34 91 -10 4 8 12 15 20 15 8 0 14 7 14 15 0 8 4 15 9 15 5 0 13 10 17
23 4 12 10 24 13 27 12 10 41 105 41 135 0 17 4 35 10 41 5 5 12 71 16 146 5
101 11 138 20 142 8 3 14 11 14 18 0 10 29 13 120 14 79 0 124 4 132 12 7 7
27 12 45 12 19 0 49 7 68 14 20 9 35 11 35 5 0 -5 11 -14 24 -18 25 -10 36
-48 36 -133 0 -27 4 -48 9 -48 5 0 12 -29 16 -65 3 -36 10 -65 15 -65 5 0 11
-14 15 -30 4 -17 11 -30 16 -30 5 0 9 -6 9 -12 0 -26 60 -78 90 -78 36 0 90
52 90 86 0 13 4 24 10 24 5 0 12 17 15 38 4 20 10 46 15 57 5 11 11 111 12
223 l3 203 75 -4 c93 -6 179 -26 203 -48 28 -26 38 -83 35 -211 -1 -64 0 -120
4 -123 3 -4 16 0 29 7 31 17 109 94 109 106 0 5 7 12 15 16 8 3 15 12 15 20 0
8 4 16 8 18 13 5 52 87 52 108 0 11 4 20 10 20 5 0 12 17 16 38 4 20 12 40 18
44 16 10 15 486 0 496 -6 4 -15 37 -18 75 -4 37 -12 67 -17 67 -5 0 -9 10 -9
22 0 27 -41 152 -52 156 -4 2 -8 13 -8 24 0 18 -27 77 -41 88 -4 3 -10 16 -14
30 -4 13 -15 31 -23 40 -14 13 -14 15 1 18 9 2 17 7 17 11 0 5 19 11 42 14 24
3 44 11 46 16 2 6 11 11 20 11 10 0 44 14 77 30 33 16 68 30 78 30 9 0 17 4
17 9 0 5 14 12 30 16 17 4 30 10 30 15 0 5 14 11 30 15 17 4 30 11 30 16 0 5
7 9 15 9 9 0 18 7 21 15 4 8 12 15 19 15 8 0 20 6 27 12 16 15 47 35 68 45 8
4 26 20 40 35 13 15 28 28 33 28 5 0 28 19 52 43 24 23 64 60 89 82 26 22 57
49 70 61 13 11 27 31 31 42 3 12 11 22 16 22 5 0 9 6 9 13 0 7 5 18 12 25 22
22 39 87 45 174 6 86 -7 188 -43 344 -8 33 -14 77 -14 97 0 20 -4 37 -9 37 -5
0 -12 27 -16 60 -4 33 -11 60 -15 60 -4 0 -11 23 -15 50 -4 28 -11 50 -15 50
-5 0 -12 20 -16 45 -3 25 -10 45 -14 45 -4 0 -11 16 -14 35 -4 19 -11 35 -16
35 -6 0 -10 8 -10 18 0 23 -39 134 -51 147 -5 5 -9 17 -9 26 0 9 -7 30 -15 45
-8 16 -15 39 -15 52 0 12 -4 22 -9 22 -5 0 -12 14 -16 30 -4 17 -10 30 -15 30
-4 0 -10 18 -14 40 -3 22 -10 40 -15 40 -5 0 -12 14 -16 30 -4 17 -10 30 -15
30 -5 0 -11 14 -15 30 -4 17 -10 30 -14 30 -3 0 -12 12 -18 28 -19 45 -57 106
-81 129 -12 12 -22 26 -22 30 0 5 -7 16 -15 26 -8 9 -15 21 -15 26 0 7 -11 22
-50 68 -5 7 -10 15 -10 18 0 4 -6 12 -12 19 -7 7 -26 30 -43 51 -16 20 -42 49
-56 64 -15 15 -29 37 -33 49 -4 12 -11 20 -16 17 -5 -3 -11 4 -15 15 -3 11
-11 20 -16 20 -5 0 -9 5 -9 11 0 13 -182 199 -194 199 -4 0 -14 7 -22 15 -9 8
-27 15 -40 15 -14 0 -23 4 -20 9 3 5 -18 12 -46 16 -29 4 -56 11 -59 16 -3 5
-35 12 -72 16 -37 3 -67 9 -67 13 0 4 -49 10 -110 14 -60 3 -121 11 -135 16
-15 6 -75 10 -135 10 -60 0 -142 4 -182 10 -97 13 -262 17 -373 9z m832 -804
c20 -21 25 -116 6 -122 -15 -5 -18 -123 -4 -123 5 0 12 -11 15 -24 3 -14 16
-28 28 -32 21 -6 47 -31 48 -44 0 -3 -15 -14 -34 -24 -27 -14 -32 -21 -23 -31
9 -9 14 -9 25 2 7 7 19 13 27 13 14 0 27 23 31 57 2 15 -4 24 -17 28 -10 4
-19 11 -19 16 0 5 -9 9 -20 9 -11 0 -20 7 -20 15 0 8 -4 15 -10 15 -14 0 -13
117 1 122 18 6 15 118 -2 129 -19 12 97 12 120 0 9 -6 80 -13 156 -17 147 -8
159 -12 171 -58 3 -14 10 -26 15 -26 5 0 9 -7 9 -15 0 -9 7 -18 15 -21 8 -4
15 -12 15 -19 0 -8 6 -20 13 -27 6 -7 21 -31 32 -52 11 -21 25 -41 32 -43 7
-3 13 -11 13 -19 0 -8 4 -14 9 -14 5 0 13 -9 16 -21 4 -12 24 -38 45 -59 21
-21 41 -47 44 -58 4 -11 13 -23 21 -26 8 -3 15 -12 15 -21 0 -8 4 -15 10 -15
5 0 12 -11 16 -25 3 -14 10 -25 14 -25 4 0 10 -9 13 -20 4 -15 0 -20 -14 -20
-10 0 -19 -4 -19 -10 0 -5 -8 -10 -19 -10 -10 0 -24 -7 -31 -15 -16 -19 -5
-19 52 1 43 14 48 14 67 -3 12 -9 21 -23 21 -30 0 -7 4 -13 9 -13 5 0 12 -13
16 -30 4 -16 11 -30 16 -30 5 0 11 -11 15 -25 3 -14 10 -25 15 -25 5 0 9 -7 9
-15 0 -8 -4 -15 -9 -15 -4 0 -11 -19 -14 -42 -3 -24 -11 -44 -16 -46 -14 -5
-14 -52 -1 -52 6 0 10 -37 10 -90 0 -49 -4 -90 -8 -90 -5 0 -12 -127 -15 -282
-4 -155 -11 -284 -16 -287 -4 -4 -11 -49 -14 -101 -3 -52 -11 -96 -17 -98 -5
-2 -10 -15 -10 -28 0 -14 -6 -27 -14 -30 -8 -3 -17 -16 -20 -28 -3 -13 -46
-63 -94 -112 -97 -97 -129 -124 -149 -124 -7 0 -13 -4 -13 -9 0 -5 -13 -12
-30 -16 -16 -4 -30 -11 -30 -16 0 -5 -18 -12 -40 -15 -22 -4 -40 -10 -40 -14
0 -4 -25 -11 -55 -15 -30 -3 -57 -11 -60 -16 -4 -5 -30 -9 -60 -9 -30 0 -56
-4 -59 -9 -6 -9 -79 -16 -233 -24 -35 -2 -66 -7 -70 -10 -10 -10 -473 -8 -473
1 0 5 -48 12 -107 16 -59 3 -112 11 -117 16 -6 6 -36 10 -67 10 -70 0 -186 26
-206 46 -8 7 -21 14 -29 14 -8 0 -14 5 -14 10 0 6 -8 14 -17 17 -34 13 -183
162 -183 183 0 6 -6 13 -14 16 -8 3 -17 16 -20 30 -4 13 -10 24 -15 24 -5 0
-12 14 -16 30 -4 17 -10 30 -15 30 -4 0 -11 12 -15 27 -3 15 -10 30 -13 33
-14 10 -42 72 -42 91 0 10 -4 19 -9 19 -5 0 -12 19 -16 43 -4 23 -12 45 -18
48 -15 10 -15 251 1 256 6 3 12 14 12 25 0 11 14 49 30 85 17 35 30 71 30 79
0 8 4 14 9 14 5 0 12 14 16 30 4 17 10 30 15 30 5 0 11 14 15 30 4 17 11 30
15 30 5 0 12 16 16 35 3 19 10 33 14 30 4 -3 11 11 14 30 4 19 11 35 16 35 4
0 11 14 15 30 4 17 10 30 13 30 4 0 16 19 27 43 11 23 26 48 32 55 7 7 13 19
13 27 0 7 7 15 15 19 8 3 15 12 15 21 0 8 4 15 9 15 5 0 12 14 16 30 4 17 10
28 15 25 4 -3 11 7 14 21 4 14 11 31 17 37 39 47 49 61 49 69 0 5 9 18 20 30
10 12 17 25 14 30 -3 4 0 8 5 8 6 0 11 6 11 14 0 8 7 16 15 20 8 3 15 12 15
21 0 8 4 15 9 15 5 0 13 10 17 22 4 12 20 35 35 51 16 16 29 33 29 38 0 5 18
26 40 48 22 21 40 41 40 45 0 11 148 156 159 156 6 0 14 6 17 14 3 7 23 16 45
20 21 3 39 10 39 16 0 14 99 18 332 15 179 -3 210 -6 225 -20z m-323 -2687
c-3 -9 -16 -19 -29 -22 -13 -3 -26 -15 -30 -25 -3 -11 -12 -22 -20 -25 -8 -3
-15 -11 -15 -17 0 -6 -23 -33 -50 -60 -41 -40 -57 -49 -86 -49 l-36 0 76 76
c42 42 76 80 76 85 0 5 18 27 40 49 22 22 40 42 40 45 0 3 6 12 13 19 10 11
13 7 19 -23 4 -20 5 -43 2 -53z m138 47 c-2 -14 -8 -25 -12 -25 -5 0 -12 -9
-15 -20 -11 -34 -50 -26 -69 14 -25 52 -22 56 43 56 57 0 58 -1 53 -25z m73
17 c6 -4 22 -30 37 -58 l27 -51 -23 -12 c-20 -11 -28 -9 -64 16 -39 26 -55 53
-32 53 6 0 10 11 10 23 0 35 20 48 45 29z m122 -179 c33 -33 38 -44 38 -84 0
-29 -6 -51 -17 -62 -21 -21 -48 -22 -48 -2 0 8 -4 15 -9 15 -5 0 -12 25 -16
55 -3 30 -10 55 -15 55 -10 0 -21 40 -14 52 11 18 45 6 81 -29z m-537 -130 c0
-13 -4 -23 -9 -23 -5 0 -12 -11 -15 -25 -8 -31 -36 -61 -68 -70 -12 -4 -25
-11 -28 -16 -3 -4 -37 -11 -75 -15 l-70 -7 90 90 c86 86 92 90 132 89 38 -1
43 -4 43 -23z m487 -59 c13 -4 20 -10 17 -15 -3 -5 6 -9 20 -9 14 0 26 5 26
10 0 15 19 12 36 -4 16 -16 20 -136 5 -136 -5 0 -12 -18 -16 -40 -4 -22 -11
-40 -16 -40 -5 0 -11 -11 -15 -25 -3 -14 -10 -25 -15 -25 -5 0 -9 -5 -9 -11 0
-14 -67 -79 -81 -79 -5 0 -9 -4 -9 -9 0 -5 -13 -12 -30 -16 -16 -4 -30 -10
-30 -15 0 -5 -13 -11 -30 -15 -16 -4 -30 -11 -30 -16 0 -5 -18 -12 -40 -15
-22 -4 -40 -10 -40 -14 0 -5 -24 -11 -52 -15 -29 -4 -56 -12 -59 -17 -4 -5
-69 -12 -146 -15 l-140 -6 -7 34 c-3 19 -5 36 -5 39 1 3 -9 18 -22 34 -82 97
-92 106 -119 106 -16 0 -30 5 -32 11 -2 5 -27 11 -56 12 -50 1 -68 12 -37 23
8 4 15 10 15 15 0 12 38 49 50 49 6 0 10 7 10 15 0 8 7 15 15 15 8 0 15 5 15
11 0 5 4 8 9 5 5 -3 11 1 14 9 5 11 18 13 58 8 56 -7 89 -30 89 -63 0 -11 4
-20 10 -20 5 0 12 -16 16 -35 3 -19 10 -35 15 -35 5 0 9 -6 9 -14 0 -24 66
-86 98 -92 37 -8 102 3 102 16 0 6 -22 10 -50 10 -38 0 -50 4 -50 15 0 11 12
15 49 15 34 0 51 4 55 15 3 8 12 15 21 15 8 0 15 7 15 15 0 8 4 15 8 15 10 0
42 71 42 93 0 9 12 18 30 22 17 4 30 10 30 15 0 4 11 11 25 14 14 4 35 14 47
24 36 28 98 93 98 102 0 15 51 23 87 14z m303 -119 c11 7 25 -60 15 -74 -13
-23 -35 -11 -35 19 0 17 -4 30 -10 30 -5 0 -10 7 -10 16 0 8 5 12 10 9 6 -3
11 2 11 12 1 17 2 17 6 0 2 -9 8 -15 13 -12z m-667 -15 c18 -21 24 -90 8 -90
-5 0 -12 -14 -16 -30 -5 -21 -14 -32 -31 -36 -13 -3 -24 -10 -24 -14 0 -9 -88
-20 -105 -13 -13 4 -8 53 5 53 5 0 11 14 15 30 4 17 11 30 16 30 5 0 9 6 9 14
0 18 68 76 89 76 9 0 24 -9 34 -20z m728 -130 c5 0 9 -4 9 -10 0 -5 -11 -10
-25 -10 -20 0 -25 5 -25 24 0 29 24 41 28 14 2 -10 8 -18 13 -18z m-275 -76
c-4 -18 -11 -34 -16 -34 -6 0 -10 -6 -10 -14 0 -20 -45 -64 -74 -72 -14 -3
-26 -9 -26 -13 0 -9 -76 -30 -132 -38 -24 -3 -38 -1 -38 6 0 6 5 11 11 11 13
0 101 41 109 51 3 4 16 10 30 14 14 4 35 18 47 31 12 13 27 24 33 24 5 0 10 5
10 10 0 6 11 21 25 34 14 13 25 30 26 37 0 11 2 11 6 1 3 -7 2 -29 -1 -48z
m-898 -14 c2 -6 9 -10 16 -10 13 0 39 -28 49 -53 3 -9 10 -17 15 -17 17 0 33
-83 25 -125 -8 -36 -12 -40 -41 -43 -18 -2 -32 -7 -32 -13 0 -5 -31 -9 -70 -9
-38 0 -70 4 -70 9 0 5 -13 11 -28 14 -40 8 -54 42 -55 139 -2 86 5 105 43 121
21 9 144 -2 148 -13z m892 -161 c0 -51 -4 -78 -10 -74 -6 4 -10 -8 -10 -29 0
-53 -9 -66 -51 -72 -21 -4 -39 -10 -39 -15 0 -12 -67 -11 -75 1 -3 6 -15 10
-26 10 -10 0 -19 6 -19 14 0 8 -4 16 -9 18 -5 2 -11 28 -12 58 l-4 55 33 3
c17 2 32 7 32 11 0 5 18 11 40 15 22 3 40 10 40 15 0 5 12 12 28 15 15 4 36
17 47 31 11 13 23 24 28 25 4 0 7 -36 7 -81z m-1023 -119 c12 0 25 -4 28 -10
3 -5 31 -10 61 -10 30 0 54 5 54 10 0 6 19 10 41 10 38 0 41 -2 34 -22 -4 -13
-10 -50 -14 -83 l-6 -60 -75 -3 c-105 -4 -160 5 -160 27 0 9 -4 21 -9 27 -5 5
-11 40 -15 77 l-7 69 23 -16 c12 -9 32 -16 45 -16z m998 -187 c-3 -24 -10 -43
-14 -43 -5 0 -11 -17 -15 -38 -6 -39 -33 -62 -66 -55 -18 4 -80 92 -80 114 0
8 -4 19 -9 25 -5 5 -12 30 -15 55 l-7 46 31 -5 c16 -2 30 -8 30 -13 0 -5 14
-9 30 -9 17 0 30 4 30 9 0 5 18 11 40 15 22 3 41 12 42 19 1 6 3 -8 5 -33 3
-25 2 -64 -2 -87z m-880 -11 l83 3 -5 -55 c-4 -30 -9 -57 -13 -60 -4 -3 -11
-24 -15 -47 -4 -24 -10 -43 -15 -43 -4 0 -11 -11 -14 -25 -13 -52 -59 -80 -92
-57 -30 20 -83 191 -84 269 0 31 0 31 36 21 20 -5 73 -8 119 -6z"/>
<path d="M2617 3524 c3 -7 9 -14 14 -14 5 0 9 -6 9 -13 0 -7 9 -20 20 -30 11
-9 20 -23 20 -31 0 -8 7 -16 15 -20 8 -3 15 -12 15 -21 0 -8 4 -15 8 -15 5 0
14 -28 21 -62 21 -103 24 -128 13 -141 -5 -6 -13 -27 -17 -44 -3 -18 -11 -33
-16 -33 -5 0 -9 -7 -9 -15 0 -43 41 4 62 71 15 48 16 83 5 114 -3 8 -8 33 -12
55 -8 53 -34 104 -67 135 -16 13 -28 28 -28 33 0 12 -21 32 -42 40 -12 4 -15
2 -11 -9z"/>
<path d="M3635 3500 c-11 -5 -16 -9 -11 -9 6 -1 0 -10 -12 -21 -12 -12 -22
-27 -22 -35 0 -8 -4 -15 -9 -15 -5 0 -12 -13 -16 -30 -4 -16 -11 -30 -16 -30
-5 0 -9 -47 -9 -105 0 -58 4 -105 9 -105 5 0 13 -9 16 -20 3 -11 13 -20 21
-20 18 0 10 36 -14 59 -11 12 -13 33 -9 99 3 47 10 87 15 91 6 3 14 19 17 34
4 15 11 27 16 27 5 0 9 6 9 14 0 8 6 21 13 28 11 11 31 49 24 47 -1 0 -11 -4
-22 -9z"/>
<path d="M1863 3287 c-13 -14 -23 -34 -23 -46 0 -12 -4 -21 -10 -21 -5 0 -10
-25 -10 -55 0 -30 4 -55 9 -55 4 0 11 -25 14 -57 3 -31 10 -59 14 -62 4 -3 19
-28 32 -56 14 -27 35 -59 48 -71 13 -12 23 -24 23 -28 0 -7 38 -46 45 -46 3 0
15 -8 26 -18 10 -11 32 -25 47 -33 15 -8 30 -18 33 -23 4 -4 48 -11 99 -14
118 -6 97 -23 -32 -24 -61 0 -93 3 -96 11 -2 6 -16 11 -30 11 -15 0 -36 7 -46
15 -23 17 -56 20 -56 5 0 -6 8 -14 18 -17 9 -4 23 -13 30 -20 7 -7 22 -13 32
-13 10 0 20 -6 23 -12 5 -17 265 -18 275 -1 4 6 24 14 44 18 20 4 39 13 42 21
3 8 12 14 21 14 8 0 15 4 15 9 0 5 10 13 21 16 27 9 119 101 119 119 0 8 7 16
15 20 8 3 15 13 15 21 0 9 4 14 9 10 12 -7 25 77 17 109 -3 14 -16 28 -28 32
-11 3 -31 16 -42 28 -24 24 -42 36 -106 68 -25 13 -47 26 -50 30 -3 3 -18 10
-33 13 -15 4 -27 11 -27 16 0 4 -16 11 -35 15 -19 3 -35 10 -35 15 0 4 -21 11
-47 15 -27 4 -51 11 -54 16 -3 5 -30 11 -60 15 -30 3 -56 10 -59 14 -3 4 -46
11 -95 14 -87 6 -91 5 -112 -18z"/>
<path d="M3848 3303 c-16 -2 -28 -8 -28 -13 0 -5 -9 -12 -20 -15 -24 -8 -82
-63 -107 -103 -10 -15 -23 -31 -30 -35 -7 -4 -13 -14 -13 -22 0 -7 -6 -15 -12
-18 -16 -5 -14 -130 1 -135 6 -2 11 -12 11 -22 0 -44 85 -151 136 -170 37 -14
71 -12 78 5 4 11 -1 15 -19 15 -16 0 -25 6 -25 15 0 8 4 15 10 15 15 0 50 33
50 47 0 7 4 13 10 13 5 0 12 17 16 38 4 20 11 40 16 43 4 3 11 42 15 87 3 45
10 82 14 82 5 0 9 14 9 30 0 17 -4 30 -9 30 -4 0 -11 18 -14 41 -5 36 -38 82
-56 78 -3 -1 -18 -4 -33 -6z"/>
<path d="M3136 2927 c-13 -13 -28 -35 -31 -50 -4 -15 -11 -27 -15 -27 -5 0
-11 -13 -15 -30 -4 -16 -11 -30 -16 -30 -5 0 -9 -11 -9 -25 0 -14 -7 -42 -15
-62 -19 -45 -19 -67 1 -119 17 -44 33 -54 89 -54 44 0 61 26 68 106 4 38 11
101 16 139 15 103 -1 175 -38 175 -5 0 -21 -10 -35 -23z"/>
<path d="M3297 2922 c-14 -15 -17 -47 -17 -196 -2 -189 0 -196 45 -196 71 0
99 45 92 146 -7 84 -29 217 -37 224 -4 3 -9 13 -13 23 -8 22 -49 22 -70 -1z"/>
<path d="M3631 2323 c-6 -21 -11 -44 -11 -50 0 -20 -38 -53 -61 -53 -26 0 -46
20 -55 54 -3 14 -10 29 -15 32 -5 3 -9 14 -9 24 0 40 -28 8 -33 -38 -3 -25
-10 -48 -16 -50 -6 -2 -11 -10 -11 -18 0 -8 -7 -14 -15 -14 -8 0 -15 -4 -15
-10 0 -13 -64 -23 -104 -16 -29 6 -35 12 -50 57 -9 28 -16 60 -16 70 0 35 -20
19 -26 -21 -4 -22 -11 -40 -16 -40 -5 0 -12 -8 -15 -17 -12 -32 -46 -54 -119
-79 -38 -13 -48 -13 -62 -2 -39 30 -52 52 -52 90 0 24 -4 37 -10 33 -6 -4 -11
6 -11 22 -2 23 -2 24 -6 6 -2 -13 -8 -23 -13 -23 -4 0 -11 -19 -15 -42 -12
-68 -81 -119 -141 -104 -38 10 -55 31 -61 76 -3 22 -10 40 -14 40 -5 0 -9 18
-9 41 l0 41 -31 -31 c-27 -28 -37 -31 -90 -31 -33 0 -58 -4 -55 -9 3 -5 -13
-11 -36 -14 -24 -3 -44 -11 -46 -16 -2 -6 -9 -11 -16 -11 -17 0 -45 -35 -52
-67 -6 -26 -4 -25 34 15 28 30 51 45 76 49 20 3 36 9 36 13 0 4 32 10 72 12
40 3 74 11 76 17 9 26 20 7 27 -44 3 -30 11 -55 16 -55 5 0 9 -7 9 -15 0 -8 6
-15 14 -15 8 0 16 -6 19 -12 2 -8 21 -13 48 -13 55 0 128 47 129 83 0 13 6 22
15 22 8 0 15 -5 15 -11 0 -6 9 -24 21 -40 19 -27 26 -29 81 -29 63 0 101 15
150 60 57 52 58 53 58 30 0 -40 36 -62 103 -62 36 0 63 5 65 11 2 6 9 11 16
11 14 0 35 24 56 64 8 15 16 22 18 16 7 -21 36 -50 49 -50 7 0 13 -4 13 -10 0
-5 11 -10 25 -10 14 0 25 5 25 10 0 6 7 10 15 10 8 0 15 7 15 15 0 9 7 18 15
21 8 4 15 17 15 30 0 20 5 24 29 24 16 0 42 3 58 6 24 5 35 0 61 -26 31 -31
32 -31 32 -8 0 40 -36 62 -102 60 -39 -1 -62 3 -72 13 -13 14 -16 11 -25 -22z"/>
<path d="M3033 1183 c-7 -2 -13 -17 -13 -33 0 -16 -8 -43 -17 -61 -23 -40
-121 -139 -139 -139 -8 0 -14 -3 -14 -8 0 -4 -20 -16 -45 -27 -25 -11 -45 -23
-45 -27 0 -3 -13 -9 -30 -13 -16 -4 -30 -11 -30 -16 0 -12 27 -12 35 1 3 6 15
10 25 10 18 0 79 28 90 41 3 4 16 10 30 14 29 9 128 107 151 150 17 30 32 116
20 114 -3 0 -12 -3 -18 -6z"/>
</g>
</svg>
